{
  "outbounds": [
    {
      "type": "vless",
      "tag": "debian xtls-reality",
      "server": "129.153.140.27",
      "server_port": 8881,
      "uuid": "181d5d9b-0aaf-4a14-9e09-f48496c73db5",
      "flow": "",
      "packet_encoding": "xudp",
      "tls": {
        "enabled": true,
        "server_name": "addons.mozilla.org",
        "utls": {
          "enabled": true,
          "fingerprint": "chrome"
        },
        "reality": {
          "enabled": true,
          "public_key": "pF91c46gxH5rUyON6iOTZSC8b-Oh2SyxE__Sw88OW0w",
          "short_id": ""
        }
      },
      "multiplex": {
        "enabled": true,
        "protocol": "h2mux",
        "max_connections": 8,
        "min_streams": 16,
        "padding": true,
        "brutal": {
          "enabled": true,
          "up_mbps": 1000,
          "down_mbps": 1000
        }
      }
    },
    {
      "type": "hysteria2",
      "tag": "debian hysteria2",
      "server": "129.153.140.27",
      "server_port": 8882,
      "up_mbps": 200,
      "down_mbps": 1000,
      "password": "181d5d9b-0aaf-4a14-9e09-f48496c73db5",
      "tls": {
        "enabled": true,
        "insecure": true,
        "server_name": "",
        "alpn": [
          "h3"
        ]
      }
    },
    {
      "type": "vless",
      "tag": "debian h2-reality",
      "server": "129.153.140.27",
      "server_port": 8883,
      "uuid": "181d5d9b-0aaf-4a14-9e09-f48496c73db5",
      "tls": {
        "enabled": true,
        "server_name": "addons.mozilla.org",
        "utls": {
          "enabled": true,
          "fingerprint": "chrome"
        },
        "reality": {
          "enabled": true,
          "public_key": "pF91c46gxH5rUyON6iOTZSC8b-Oh2SyxE__Sw88OW0w",
          "short_id": ""
        }
      },
      "packet_encoding": "xudp",
      "transport": {
        "type": "http"
      }
    },
    {
      "type": "vless",
      "tag": "debian grpc-reality",
      "server": "129.153.140.27",
      "server_port": 8884,
      "uuid": "181d5d9b-0aaf-4a14-9e09-f48496c73db5",
      "tls": {
        "enabled": true,
        "server_name": "addons.mozilla.org",
        "utls": {
          "enabled": true,
          "fingerprint": "chrome"
        },
        "reality": {
          "enabled": true,
          "public_key": "pF91c46gxH5rUyON6iOTZSC8b-Oh2SyxE__Sw88OW0w",
          "short_id": ""
        }
      },
      "packet_encoding": "xudp",
      "transport": {
        "type": "grpc",
        "service_name": "grpc"
      }
    }
  ]
}